%YAML 1.1
%TAG !u! tag:unity3d.com,2011:
--- !u!74 &7400000
AnimationClip:
  m_ObjectHideFlags: 0
  m_CorrespondingSourceObject: {fileID: 0}
  m_PrefabInstance: {fileID: 0}
  m_PrefabAsset: {fileID: 0}
  m_Name: cast
  serializedVersion: 6
  m_Legacy: 0
  m_Compressed: 0
  m_UseHighQualityCurve: 1
  m_RotationCurves: []
  m_CompressedRotationCurves: []
  m_EulerCurves: []
  m_PositionCurves: []
  m_ScaleCurves: []
  m_FloatCurves: []
  m_PPtrCurves:
  - curve:
    - time: 0
      value: {fileID: 1085063230, guid: a3c7964ebf21fea418301f740b46df5d, type: 3}
    - time: 0.13333334
      value: {fileID: 1804807766, guid: a3c7964ebf21fea418301f740b46df5d, type: 3}
    - time: 0.26666668
      value: {fileID: 249659269, guid: a3c7964ebf21fea418301f740b46df5d, type: 3}
    - time: 0.4
      value: {fileID: -753449509, guid: a3c7964ebf21fea418301f740b46df5d, type: 3}
    - time: 0.6
      value: {fileID: -1896661346, guid: a3c7964ebf21fea418301f740b46df5d, type: 3}
    - time: 0.8
      value: {fileID: -1483381748, guid: a3c7964ebf21fea418301f740b46df5d, type: 3}
    - time: 0.93333334
      value: {fileID: 1835754849, guid: a3c7964ebf21fea418301f740b46df5d, type: 3}
    - time: 1.0666667
      value: {fileID: 123927314, guid: a3c7964ebf21fea418301f740b46df5d, type: 3}
    - time: 1.2
      value: {fileID: 505110254, guid: a3c7964ebf21fea418301f740b46df5d, type: 3}
    - time: 1.3333334
      value: {fileID: 505110254, guid: a3c7964ebf21fea418301f740b46df5d, type: 3}
    attribute: m_Sprite
    path: 
    classID: 212
    script: {fileID: 0}
  m_SampleRate: 60
  m_WrapMode: 0
  m_Bounds:
    m_Center: {x: 0, y: 0, z: 0}
    m_Extent: {x: 0, y: 0, z: 0}
  m_ClipBindingConstant:
    genericBindings:
    - serializedVersion: 2
      path: 0
      attribute: 0
      script: {fileID: 0}
      typeID: 212
      customType: 23
      isPPtrCurve: 1
    pptrCurveMapping:
    - {fileID: 1085063230, guid: a3c7964ebf21fea418301f740b46df5d, type: 3}
    - {fileID: 1804807766, guid: a3c7964ebf21fea418301f740b46df5d, type: 3}
    - {fileID: 249659269, guid: a3c7964ebf21fea418301f740b46df5d, type: 3}
    - {fileID: -753449509, guid: a3c7964ebf21fea418301f740b46df5d, type: 3}
    - {fileID: -1896661346, guid: a3c7964ebf21fea418301f740b46df5d, type: 3}
    - {fileID: -1483381748, guid: a3c7964ebf21fea418301f740b46df5d, type: 3}
    - {fileID: 1835754849, guid: a3c7964ebf21fea418301f740b46df5d, type: 3}
    - {fileID: 123927314, guid: a3c7964ebf21fea418301f740b46df5d, type: 3}
    - {fileID: 505110254, guid: a3c7964ebf21fea418301f740b46df5d, type: 3}
    - {fileID: 505110254, guid: a3c7964ebf21fea418301f740b46df5d, type: 3}
  m_AnimationClipSettings:
    serializedVersion: 2
    m_AdditiveReferencePoseClip: {fileID: 0}
    m_AdditiveReferencePoseTime: 0
    m_StartTime: 0
    m_StopTime: 1.35
    m_OrientationOffsetY: 0
    m_Level: 0
    m_CycleOffset: 0
    m_HasAdditiveReferencePose: 0
    m_LoopTime: 1
    m_LoopBlend: 0
    m_LoopBlendOrientation: 0
    m_LoopBlendPositionY: 0
    m_LoopBlendPositionXZ: 0
    m_KeepOriginalOrientation: 0
    m_KeepOriginalPositionY: 1
    m_KeepOriginalPositionXZ: 0
    m_HeightFromFeet: 0
    m_Mirror: 0
  m_EditorCurves: []
  m_EulerEditorCurves: []
  m_HasGenericRootTransform: 0
  m_HasMotionFloatCurves: 0
  m_Events: []
